\relax 
\@writefile{lof}{\addvspace {10pt}}
\@writefile{lot}{\addvspace {10pt}}
\@writefile{toc}{\contentsline {chapter}{Posfácio}{7}}
\@writefile{toc}{\contentsline {section}{Sobre essa Edição}{8}}
\@writefile{toc}{\contentsline {section}{Vida de Castro Alves}{10}}
\@writefile{toc}{\contentsline {section}{O Movimento Abolicionista na Época de Castro Alves}{20}}
\@writefile{toc}{\contentsline {section}{Castro Alves, Poeta Canônico}{23}}
\@writefile{toc}{\contentsline {section}{«Lúcia»: Contra a Hipocrisia}{28}}
\@writefile{toc}{\contentsline {section}{«O Navio"-Negreiro»: Contra a Nação}{36}}
\@writefile{toc}{\contentsline {section}{A Cachoeira de Paulo Afonso: Contra Deus, Contra a Família e Contra a Lei}{41}}
\@writefile{toc}{\contentsline {section}{Castro Alves, Poeta Oral}{48}}
\@writefile{toc}{\contentsline {section}{A Importância de Castro Alves}{55}}
\@writefile{toc}{\contentsline {section}{Bibliografia}{63}}
\@setckpt{INPUTS}{
\setcounter{page}{68}
\setcounter{equation}{0}
\setcounter{enumi}{0}
\setcounter{enumii}{0}
\setcounter{enumiii}{0}
\setcounter{enumiv}{0}
\setcounter{footnote}{59}
\setcounter{mpfootnote}{0}
\setcounter{@memmarkcntra}{0}
\setcounter{storedpagenumber}{1}
\setcounter{book}{0}
\setcounter{part}{0}
\setcounter{chapter}{0}
\setcounter{section}{0}
\setcounter{subsection}{0}
\setcounter{subsubsection}{0}
\setcounter{paragraph}{0}
\setcounter{subparagraph}{0}
\setcounter{@ppsavesec}{0}
\setcounter{@ppsaveapp}{0}
\setcounter{vslineno}{0}
\setcounter{poemline}{0}
\setcounter{modulo@vs}{0}
\setcounter{memfvsline}{0}
\setcounter{verse}{0}
\setcounter{chrsinstr}{0}
\setcounter{poem}{0}
\setcounter{newflo@tctr}{4}
\setcounter{@contsubnum}{0}
\setcounter{maxsecnumdepth}{1}
\setcounter{sidefootnote}{0}
\setcounter{pagenote}{0}
\setcounter{pagenoteshadow}{0}
\setcounter{memfbvline}{0}
\setcounter{bvlinectr}{0}
\setcounter{cp@cntr}{0}
\setcounter{ism@mctr}{0}
\setcounter{xsm@mctr}{0}
\setcounter{csm@mctr}{0}
\setcounter{ksm@mctr}{0}
\setcounter{xksm@mctr}{0}
\setcounter{cksm@mctr}{0}
\setcounter{msm@mctr}{0}
\setcounter{xmsm@mctr}{0}
\setcounter{cmsm@mctr}{0}
\setcounter{bsm@mctr}{0}
\setcounter{workm@mctr}{0}
\setcounter{sheetsequence}{68}
\setcounter{lastsheet}{72}
\setcounter{lastpage}{72}
\setcounter{figure}{0}
\setcounter{lofdepth}{1}
\setcounter{table}{0}
\setcounter{lotdepth}{1}
\setcounter{DefaultLines}{2}
\setcounter{L@lines}{0}
\setcounter{lips@count}{0}
\setcounter{pp@next@reset}{0}
\setcounter{@sectionNumCenter}{0}
\setcounter{ContinuedFloat}{0}
\setcounter{PWSTtable}{0}
}
