\relax 
\providecommand*{\memsetcounter}[2]{}
\catcode`"\active
\select@language{brazilian}
\@writefile{toc}{\select@language{brazilian}}
\@writefile{lof}{\select@language{brazilian}}
\@writefile{lot}{\select@language{brazilian}}
\@input{INPUTS.aux}
\ttl@finishall
\@input{PUBLICIDADE.aux}
\memsetcounter{lastsheet}{72}
\memsetcounter{lastpage}{72}
